…
# simulate 10000 times and calculate the prob
set.seed(1122)
birthday_sim_results =
  tibble(n_people = 2:50) %>% # for each group size between 2 and 50
  mutate(
    prob_shared = map_dbl(n_people,
      ~ mean(replicate(10000, birthday_shared(.x))) # run this function 10000 times & averaging across the 10000 simulation runs
    )
  )

birthday_sim_results
```

    ## # A tibble: 49 × 2
    ##    n_people prob_shared
    ##       <int>       <dbl>
    ##  1        2      0.0027
    ##  2        3      0.0072
    ##  3        4      0.0156
    ##  4        5      0.0278
    ##  5        6      0.0376
    ##  6        7      0.0539
    ##  7        8      0.0697
    ##  8        9      0.0936
    ##  9       10      0.114 
    ## 10       11      0.139 
    ## # ℹ 39 more rows
…
homicide_city_summary
```

    ## # A tibble: 51 × 3
    ##    city_state      total_homicides unsolved_homicides
    ##    <chr>                     <int>              <int>
    ##  1 Albuquerque, NM             378                146
    ##  2 Atlanta, GA                 973                373
    ##  3 Baltimore, MD              2827               1825
    ##  4 Baton Rouge, LA             424                196
    ##  5 Birmingham, AL              800                347
    ##  6 Boston, MA                  614                310
    ##  7 Buffalo, NY                 521                319
    ##  8 Charlotte, NC               687                206
    ##  9 Chicago, IL                5535               4073
    ## 10 Cincinnati, OH              694                309
    ## # ℹ 41 more rows
…
    ## Warning: There was 1 warning in `mutate()`.
    ## ℹ In argument: `prop_test = map2(...)`.
    ## Caused by warning in `prop.test()`:
    ## ! Chi-squared approximation may be incorrect

``` r
city_prop_results
```

    ## # A tibble: 51 × 6
    ##    city_state      total_homicides unsolved_homicides prop_unsolved conf_low
    ##    <chr>                     <int>              <int>         <dbl>    <dbl>
    ##  1 Albuquerque, NM             378                146         0.386    0.337
    ##  2 Atlanta, GA                 973                373         0.383    0.353
    ##  3 Baltimore, MD              2827               1825         0.646    0.628
    ##  4 Baton Rouge, LA             424                196         0.462    0.414
    ##  5 Birmingham, AL              800                347         0.434    0.399
    ##  6 Boston, MA                  614                310         0.505    0.465
    ##  7 Buffalo, NY                 521                319         0.612    0.569
    ##  8 Charlotte, NC               687                206         0.300    0.266
    ##  9 Chicago, IL                5535               4073         0.736    0.724
    ## 10 Cincinnati, OH              694                309         0.445    0.408
    ## # ℹ 41 more rows
    ## # ℹ 1 more variable: conf_high <dbl>
…
